import math
from timeit import default_timer as timer

def f1(n):
    s=0
    for j in range(1, n):
      s=s+1/j
    return s

def f2(n):
    s=0
    for j in range(1, n):
      for k in range(1, n):
        s=s+k/j
    return s

def f3(n):
    s=0
    for j in range(1, n):
      for k in range(j, n):
        s=s+k/j
    return s   
        
def f4(n):
    s=0
    for j in range(1, n):
      k=2
      while k<=n:
        s=s+k/j
        k=k*2
    return s           

def f5(n):
    s=0
    k=2
    while k<=n:
       s=s+1/k
       k=k*2
    return s   

for n in range(100000,900001,10000):  
  start = timer()
  f1(n)
  stop = timer()
  Tn=stop-start
  Fn=n
  print(n, '\t', format(Tn, '.8f'), '\t', int(Fn/Tn))

"""
100000   0.00546600      18294914
110000   0.00596480      18441523
120000   0.00658920      18211619
130000   0.00748360      17371318
140000   0.00794370      17624029
150000   0.00860020      17441454
160000   0.00910270      17577202
170000   0.00921800      18442178
180000   0.01018620      17670966
190000   0.01064260      17852780
200000   0.03550560      5632914
210000   0.01163530      18048524
220000   0.01234940      17814630
230000   0.01266330      18162722
240000   0.01298350      18485000
250000   0.01350140      18516598
260000   0.01388190      18729424
270000   0.01459360      18501260
280000   0.01508300      18563946
290000   0.01563500      18548129
300000   0.01620650      18511091
310000   0.01657080      18707606
320000   0.01734800      18445930
330000   0.01787700      18459473
340000   0.01826410      18615754
350000   0.01914430      18282204
360000   0.01944210      18516518
370000   0.01990110      18591937
380000   0.02044080      18590270
390000   0.02091940      18642982
400000   0.02151140      18594791
410000   0.02187910      18739344
420000   0.02273810      18471200
430000   0.02309060      18622296
440000   0.02376690      18513142
450000   0.02438000      18457752
460000   0.02475600      18581354
470000   0.02579540      18220302
480000   0.02564650      18716004
490000   0.02666950      18373047
500000   0.02681020      18649618
510000   0.02729700      18683371
520000   0.02800610      18567383
530000   0.02863340      18509852
540000   0.02903430      18598691
550000   0.02951980      18631562
560000   0.02996820      18686474
570000   0.03123370      18249518
580000   0.03110770      18644901
590000   0.03171340      18604123
600000   0.03215750      18658166
610000   0.03277670      18610781
620000   0.03366470      18416917
630000   0.03375170      18665726
640000   0.03434080      18636723
880000   0.04807370      18305227
890000   0.04813600      18489280
900000   0.04863970      18503403
"""
print("\n\n\n")

for n in range(1100,1901,10):  
  start = timer()
  f2(n)
  stop = timer()
  Tn=stop-start
  Fn=n**2
  print(n, '\t', format(Tn, '.8f'), '\t', int(Fn/Tn))

"""
1100     0.06433810      18806896
1110     0.06577780      18731243
1120     0.06674640      18793522
1130     0.06828970      18698280
1140     0.06944080      18715222
1150     0.07102210      18620964
1160     0.07189770      18715480
1170     0.07350440      18623374
1180     0.07488870      18592925
1190     0.07586500      18666051
1200     0.07702950      18694136
1210     0.07895430      18543638
1220     0.08042920      18505716
1230     0.08169690      18518450
1240     0.08217110      18712174
1250     0.08408050      18583381
1260     0.08518910      18636187
1270     0.08679780      18582268
1280     0.08770080      18681699
1290     0.08939260      18615634
1300     0.09046920      18680390
1310     0.09279960      18492536
1320     0.09386760      18562315
1330     0.09465150      18688557
1340     0.09601090      18702043
1350     0.09803800      18589730
1360     0.09982770      18527923
1370     0.10075050      18629187
1380     0.10245550      18587581
1390     0.10356140      18656565
1400     0.10607090      18478206
1410     0.10734750      18520226
1420     0.10883850      18526532
1430     0.11336670      18037924
1440     0.11282770      18378465
1450     0.11399530      18443742
1460     0.11461100      18598563
1470     0.11622850      18591825
1480     0.11801080      18561013
1490     0.12080340      18377794
1500     0.12185970      18463856
1510     0.12293510      18547184
1520     0.12489860      18498205
1530     0.12631330      18532490
1540     0.12779460      18557904
1550     0.12957850      18540884
1560     0.13181330      18462476
1570     0.13378960      18423704
1580     0.13571640      18394239
1590     0.14184150      17823415
1600     0.13920440      18390223
1610     0.13969740      18555105
1620     0.14202240      18478775
1630     0.14338480      18529858
1640     0.14616080      18401650
1650     0.14681610      18543606
1660     0.14888800      18507871
1670     0.15073870      18501552
1680     0.15357430      18378074
1690     0.15477050      18453775
1700     0.15632760      18486818
1710     0.15809270      18496110
1720     0.16107460      18366645
1730     0.16470540      18171231
1740     0.16368650      18496332
1750     0.16629630      18415923
1760     0.16843880      18390062
1770     0.16960940      18471263
1780     0.17176080      18446583
1790     0.17301740      18518946
1800     0.17675140      18330830
1810     0.17863650      18339477
1820     0.18015570      18386318
1830     0.18566860      18036975
1840     0.18808000      18000850
1850     0.18604990      18395602
1860     0.18739690      18461351
1870     0.18933690      18469194
1880     0.19155720      18450885
1890     0.19407010      18406235
1900     0.19587930      18429716
"""

print("\n\n\n")

for n in range(1100,1901,10):  
  start = timer()
  f3(n)
  stop = timer()
  Tn=stop-start
  Fn=n**2
  print(n, '\t', format(Tn, '.8f'), '\t', int(Fn/Tn))

"""
1100     0.03317710      36470939
1110     0.03502160      35181145
1120     0.03436140      36506079
1130     0.03494410      36541218
1140     0.03557860      36527575
1150     0.03621720      36515799
1160     0.03742560      35953999
1170     0.03794500      36075899
1180     0.03860450      36068334
1190     0.03875800      36536973
1200     0.03948610      36468529
1210     0.04080200      35883044
1220     0.04084670      36438684
1230     0.04193230      36079585
1240     0.04240440      36260388
1250     0.04316170      36201076
1260     0.04340920      36572892
1270     0.04412710      36551234
1280     0.04510410      36324857
1290     0.04569910      36414283
1300     0.04635180      36460288
1310     0.04702480      36493509
1320     0.04781270      36442200
1330     0.04842300      36530161
1340     0.04917850      36511890
1350     0.04987030      36544797
1360     0.05068080      36495082
1370     0.05144630      36482701
1380     0.05303000      35911748
1390     0.05277120      36612773
1400     0.05420050      36162028
1410     0.05443550      36522122
1420     0.05548840      36339126
1430     0.05885910      34742291
1440     0.05784600      35846903
1450     0.05769980      36438601
1460     0.05831410      36553766
1470     0.05934450      36412809
1480     0.06020560      36381997
1490     0.06085790      36480062
1500     0.06155890      36550360
1510     0.06249940      36481950
1520     0.06369240      36274343
1530     0.06454090      36270024
1540     0.06511700      36420596
1550     0.06623580      36271925
1560     0.06662650      36526006
1570     0.06754980      36490115
1580     0.06838350      36505882
1590     0.07149550      35360267
1600     0.07006500      36537500
1610     0.07194660      36028109
1620     0.07200050      36449746
1630     0.07276790      36511978
1640     0.07455370      36076009
1650     0.07512140      36241337
1660     0.07522330      36632266
1670     0.07698070      36228561
1680     0.07730490      36509975
1690     0.07797750      36627232
1700     0.07988780      36175736
1710     0.08173400      35775809
1720     0.08466350      34943039
1730     0.08416230      35561052
1740     0.08324710      36368834
1750     0.08541130      35855911
1760     0.08622140      35926115
1770     0.08559890      36599769
1780     0.08688360      36467181
1790     0.08825050      36306876
1800     0.08889560      36447248
1810     0.08992900      36429850
1820     0.09112800      36348871
1830     0.09220000      36322125
1840     0.09356440      36184702
1850     0.09398080      36417012
1860     0.09470420      36530586
1870     0.09628260      36319127
1880     0.09703460      36424120
1890     0.09862850      36217726
1900     0.09882770      36528220
"""

print("\n\n\n")

for n in range(11000,19001,100):  
  start = timer()
  f4(n)
  stop = timer()
  Tn=stop-start
  Fn=n*math.log(n,2)
  print(n, '\t', format(Tn, '.8f'), '\t', int(Fn/Tn))

"""
11000    0.01294630      11406917
11100    0.01222920      12197430
11200    0.01203430      12518681
11300    0.01282930      11859072
11400    0.01230040      12490236
11500    0.01257550      12335690
11600    0.01239150      12639415
11700    0.01272440      12426235
11800    0.01263980      12627786
11900    0.01282830      12558968
12000    0.01331290      12214390
12100    0.01292230      12699666
12200    0.01314800      12595835
12300    0.01408750      11862456
12400    0.01351680      12474539
12500    0.01345250      12646014
12600    0.01357080      12646735
12700    0.01364290      12690356
12800    0.01436310      12159029
12900    0.01415560      12443879
13000    0.01403620      12657336
13100    0.01420020      12617593
13200    0.01426800      12663646
13300    0.01433250      12712265
13400    0.01492810      12306540
13500    0.01446070      12809135
13600    0.01501750      12435221
13700    0.01473420      12777339
13800    0.01483700      12791187
13900    0.01489700      12841705
14000    0.01569510      12285614
14100    0.01544460      12583430
14200    0.01533570      12772104
14300    0.01535970      12851377
14400    0.01582840      12567186
14500    0.01599100      12534838
14600    0.01580220      12781241
14700    0.01592540      12778320
14800    0.01597630      12833320
14900    0.01604830      12871087
15000    0.01631050      12758046
15100    0.01638930      12790182
15200    0.01675420      12603115
15300    0.01641100      12960150
15400    0.01680300      12749145
15500    0.01674660      12883791
15600    0.01679670      12936852
15700    0.01697260      12893374
15800    0.01897940      11611150
15900    0.01882130      11790479
16000    0.01826530      12233719
16100    0.01897250      11858945
16200    0.01855610      12208170
16300    0.01759710      12961176
16400    0.02014180      11400326
16500    0.01898430      12176795
16600    0.01996800      11654330
16700    0.01993560      11750850
16800    0.01962040      12018496
16900    0.01963940      12085706
17000    0.01964490      12161181
17100    0.01989740      12084755
17200    0.02009540      12042859
17300    0.02096400      11617905
17400    0.02021820      12123251
17500    0.02032630      12135198
17600    0.02038600      12175898
17700    0.02064270      12099816
17800    0.02063850      12177662
17900    0.02062870      12258907
18000    0.02093280      12155218
18100    0.02134530      11993319
18200    0.02170630      11865681
18300    0.02138250      12118315
18400    0.02134160      12214664
18500    0.02133570      12291225
18600    0.02178440      12109770
18700    0.02168590      12236846
18800    0.02180330      12242677
18900    0.02186370      12280412
19000    0.02205860      12242867
"""

print("\n\n\n")

for n in range(110000000000,190000000001,1000000000):  
  start = timer()
  f5(n)
  stop = timer()
  Tn=stop-start
  Fn=math.log(n,2)
  print(n, '\t', format(Tn, '.8f'), '\t', int(Fn/Tn))

"""
110000000000     0.00000710      5166015
111000000000     0.00000530      6922975
112000000000     0.00000540      6797168
113000000000     0.00001570      2338696
114000000000     0.00000540      6801896
115000000000     0.00000550      6680516
116000000000     0.00000540      6806543
117000000000     0.00000510      7209356
118000000000     0.00000510      7211763
119000000000     0.00000500      7358434
120000000000     0.00000570      6456884
121000000000     0.00000550      6693857
122000000000     0.00000540      6820016
123000000000     0.00000510      7223503
124000000000     0.00000570      6465184
125000000000     0.00000490      7523089
126000000000     0.00001960      1881358
127000000000     0.00000490      7527762
128000000000     0.00000550      6708609
129000000000     0.00000510      7236976
130000000000     0.00000490      7534636
131000000000     0.00000480      7693911
132000000000     0.00000490      7539132
133000000000     0.00000530      6972195
134000000000     0.00000530      6974234
135000000000     0.00000500      7394833
136000000000     0.00000480      7705169
137000000000     0.00000480      7707371
138000000000     0.00000500      7401175
139000000000     0.00000540      6854869
140000000000     0.00000510      7260124
141000000000     0.00000540      6858685
142000000000     0.00000500      7409419
143000000000     0.00000490      7562698
144000000000     0.00000510      7268093
145000000000     0.00000490      7566788
146000000000     0.00000520      7132149
147000000000     0.00000520      7134043
148000000000     0.00000490      7572817
149000000000     0.00000520      7137792
150000000000     0.00000510      7279641
151000000000     0.00000520      7141491
152000000000     0.00000510      7283388
153000000000     0.00000500      7430948
154000000000     0.00000520      7146949
155000000000     0.00000500      7434695
156000000000     0.00000500      7436551
157000000000     0.00001710      2174969
158000000000     0.00000530      7019081
159000000000     0.00000500      7442047
160000000000     0.00000490      7595771
161000000000     0.00000580      6418667
162000000000     0.00000540      6895778
163000000000     0.00000510      7303153
164000000000     0.00000500      7450980
165000000000     0.00000530      7030882
166000000000     0.00000530      7032526
167000000000     0.00000560      6657331
168000000000     0.00000520      7171090
169000000000     0.00000540      6907080
170000000000     0.00000520      7174373
171000000000     0.00000530      7040604
172000000000     0.00000510      7318356
173000000000     0.00000520      7179227
174000000000     0.00000800      4667537
175000000000     0.00000530      7046898
176000000000     0.00001130      3305910
177000000000     0.00000520      7185568
178000000000     0.00000500      7474617
179000000000     0.00000510      7329640
180000000000     0.00000510      7331216
181000000000     0.00000560      6678071
182000000000     0.00000510      7334342
183000000000     0.00000510      7335892
184000000000     0.00000530      7060549
185000000000     0.00000510      7338967
186000000000     0.00000500      7487302
187000000000     0.00000500      7488849
188000000000     0.00000480      7802487
189000000000     0.00000510      7345018
190000000000     0.00000490      7646369
"""

# inne funkcje czasu:

# Fn=math.log(n,2)
# Fn=n
# Fn=100*n
# Fn=n*math.log(n,2)
# Fn=n*n